% Generated by IEEEtran.bst, version: 1.12 (2007/01/11)
\begin{thebibliography}{10}
\providecommand{\url}[1]{#1}
\csname url@samestyle\endcsname
\providecommand{\newblock}{\relax}
\providecommand{\bibinfo}[2]{#2}
\providecommand{\BIBentrySTDinterwordspacing}{\spaceskip=0pt\relax}
\providecommand{\BIBentryALTinterwordstretchfactor}{4}
\providecommand{\BIBentryALTinterwordspacing}{\spaceskip=\fontdimen2\font plus
\BIBentryALTinterwordstretchfactor\fontdimen3\font minus
  \fontdimen4\font\relax}
\providecommand{\BIBforeignlanguage}[2]{{%
\expandafter\ifx\csname l@#1\endcsname\relax
\typeout{** WARNING: IEEEtran.bst: No hyphenation pattern has been}%
\typeout{** loaded for the language `#1'. Using the pattern for}%
\typeout{** the default language instead.}%
\else
\language=\csname l@#1\endcsname
\fi
#2}}
\providecommand{\BIBdecl}{\relax}
\BIBdecl

\bibitem{IJCIR05}
G.~Luque and E.~Alba, ``{Metaheuristics for the {DNA} Fragment Assembly
  Problem},'' \emph{International Journal of Computational Intelligence
  Research}, vol.~1, no. 1-2, pp. 98--108, 2005.

\bibitem{setubal}
J.~C. Setubal and J.~Meidanis, ``Fragment assembly of {DNA},''
  \emph{Introduction to Computational Molecular Biology}, pp. 105--139, 1997.

\bibitem{Phrap}
P.~Green, ``Phrap,'' \url{http://www.phrap.org/}, [Online; accessed
  20-November-2011].

\bibitem{TIGR}
G.~Sutton, W.~O., A.~M.D., and K.~A.R., ``Tigr assembler: A new tool for
  assembling large shotgun sequencing projects,'' \emph{Genome Science and
  Tech}, pp. 9--19, 1995.

\bibitem{Chen97trie-baseddata}
T.~Chen and S.~S. Skiena, ``Trie-based data structures for sequence assembly,''
  in \emph{The Eighth Symposium on Combinatorial Pattern Matching}.\hskip 1em
  plus 0.5em minus 0.4em\relax Springer-Verlag, 1997, pp. 206--223.

\bibitem{CAP}
X.~Huang and A.~Madan, ``Cap3: A {DNA} sequence assembly program,''
  \emph{Genome Research}, vol.~9, pp. 868--877, 1999.

\bibitem{Myers95towardsimplifying}
E.~W. Myers, ``Toward simplifying and accurately formulating fragment
  assembly,'' \emph{Journal of Computational Biology}, vol.~2, pp. 275--290,
  1995.

\bibitem{Euler}
P.~A. Pevzner, ``Computational molecular biology - an algorithmic approach,''
  pp. 1--314, 2000.

\bibitem{ACO:2003}
P.~Meksangsouy and N.~Chaiyaratana, ``{DNA} fragment assembly using an ant
  colony system algorithm,'' in \emph{Proceedings of Congress on Evolutionary
  Computation}, vol.~3, 2003, pp. 1756--1763.

\bibitem{straden80}
R.~Staden, ``A new computer method for the storage and manipulation of dna gel
  reading data,'' \emph{Nucleic acids research}, vol.~8, pp. 3673--3694, 1980.

\bibitem{Xiaoqiu92}
Xiaoqiu and Huang, ``A contig assembly program based on sensitive detection of
  fragment overlaps,'' \emph{Genomics}, vol.~14, no.~1, pp. 18 -- 25, 1992.

\bibitem{Ferreira:2002}
\BIBentryALTinterwordspacing
C.~E. Ferreira, C.~C. de~Souza, and Y.~Wakabayashi, ``Rearrangement of {DNA}
  fragments: a branch-and-cut algorithm,'' \emph{Discrete Appl. Math.}, vol.
  116, pp. 161--177, February 2002. [Online]. Available:
  \url{http://dl.acm.org/citation.cfm?id=544524.544534}
\BIBentrySTDinterwordspacing

\bibitem{Braga:2002}
\BIBentryALTinterwordspacing
M.~D.~V. Braga and J.~Meidanis, ``An algorithm that builds a set of strings
  given its overlap graph,'' in \emph{Proceedings of the 5th Latin American
  Symposium on Theoretical Informatics}, ser. LATIN '02.\hskip 1em plus 0.5em
  minus 0.4em\relax London, UK: Springer-Verlag, 2002, pp. 52--63. [Online].
  Available: \url{http://dl.acm.org/citation.cfm?id=646389.690500}
\BIBentrySTDinterwordspacing

\bibitem{churchill93}
G.~Churchill, C.~Burks, M.~Eggert, M.~Engle, and M.~Waterman, ``Assembling
  {DNA} sequence fragments by shuffling and simulated annealing,'' Los Alamos
  National Lab, Los Alamos, NM, Tech. Rep.

\bibitem{Burks94}
C.~Burks, M.~Engle, S.~Forrest, R.~I. Parsons, C.~Soderlund, and P.~Stolorz,
  ``Stochastic optimization tools for genomic sequence assembly.'' in \emph{M.
  D. Adams, C. Fields and J. C. Venter (Eds.), Automated DNA Sequencing and
  Analysis Techniques.}\hskip 1em plus 0.5em minus 0.4em\relax UK Academic
  Press.

\bibitem{Parsons:1995}
\BIBentryALTinterwordspacing
R.~J. Parsons, S.~Forrest, and C.~Burks, ``Genetic algorithms, operators, and
  {DNA} fragment assembly,'' \emph{Mach. Learn.}, vol.~21, pp. 11--33, October
  1995. [Online]. Available:
  \url{http://dl.acm.org/citation.cfm?id=218261.218264}
\BIBentrySTDinterwordspacing

\bibitem{alba07evocop}
E.~Alba and G.~Luque, ``A new local search algorithm for the {DNA} fragment
  assembly problem,'' in \emph{Evolutionary Computation in Combinatorial
  Optimization, EvoCOP'07}, ser. Lecture Notes in Computer Science 4446.\hskip
  1em plus 0.5em minus 0.4em\relax Valencia, Spain: Springer, April 2007, pp.
  1--12.

\bibitem{DorronsoroALB08}
B.~Dorronsoro, E.~Alba, G.~Luque, and P.~Bouvry, ``A self-adaptive cellular
  memetic algorithm for the {DNA} fragment assembly problem,'' in \emph{IEEE
  Congress on Evolutionary Computation}, 2008, pp. 2651--2658.

\bibitem{minetti}
G.~Minetti and E.~Alba, ``Metaheuristic assemblers of {DNA} strands: Noiseless
  and noisy cases.'' in \emph{IEEE Congress on Evolutionary Computation'10},
  2010, pp. 1--8.

\bibitem{Kubalik:2010}
\BIBentryALTinterwordspacing
J.~Kubalik, P.~Buryan, and L.~Wagner, ``Solving the {DNA} fragment assembly
  problem efficiently using iterative optimization with evolved
  hypermutations,'' in \emph{Proceedings of the 12th annual conference on
  Genetic and evolutionary computation}, ser. GECCO '10.\hskip 1em plus 0.5em
  minus 0.4em\relax New York, NY, USA: ACM, 2010, pp. 213--214. [Online].
  Available: \url{http://doi.acm.org/10.1145/1830483.1830522}
\BIBentrySTDinterwordspacing

\bibitem{Richter2008}
\BIBentryALTinterwordspacing
D.~C. Richter, F.~Ott, A.~F. Auch, R.~Schmid, and D.~H. Huson, ``Metasim:a
  sequencing simulator for genomics and metagenomics,'' \emph{PLoS ONE},
  vol.~3, no.~10, pp. e3373+, 2008. [Online]. Available:
  \url{http://dx.doi.org/10.1371/journal.pone.0003373}
\BIBentrySTDinterwordspacing

\bibitem{Meldrum01082000}
D.~Meldrum, ``Automation for genomics, part one: Preparation for sequencing,''
  \emph{Genome Research}, vol.~10, no.~8, pp. 1081--1092, 2000.

\bibitem{Meldrum01092000}
------, ``Automation for genomics, part two: Sequencers, microarrays, and
  future trends,'' \emph{Genome Research}, vol.~10, no.~9, pp. 1288--1303,
  2000.

\bibitem{Margulies2005}
M.~Margulies, M.~Egholm, W.~E. Altman, S.~Attiya, J.~S. Bader, L.~A. Bemben,
  J.~Berka, M.~S. Braverman, Y.-J. Chen, Z.~Chen, and et~al., ``Genome
  sequencing in microfabricated high-density picolitre reactors,''
  \emph{Nature}, vol. 437, no. 7057, pp. 376--380, 2005.

\bibitem{DavidR2006545}
D.~Bentley, ``Whole-genome re-sequencing,'' \emph{Current Opinion in Genetics
  and Development}, vol.~16, no.~6, pp. 545 -- 552, 2006.

\bibitem{Genfrag}
M.~L. Engle and C.~Burks, ``Artificially generated data sets for testing {DNA}
  sequence assembly algorithms,'' \emph{Genomics}, vol.~16, no.~1, pp. 286--8,
  1993.

\bibitem{ABC_survey}


\bibitem{BEE_survey}
S.~Bitam, M.~Batouche, and E.~Talbi, ``A survey on bee colony algorithms,'' in
  \emph{Parallel Distributed Processing, Workshops and Phd Forum (IPDPSW), 2010
  IEEE International Symposium on}, 2010, pp. 1--8.

\bibitem{ParadisEOTool}
S.~Cahon, N.~Melab, and T.~E.G., ``Paradiseo: A framework for the reusable
  design of parallel and distributed metaheuristics,'' \emph{Journal of
  Heuristics}, vol.~10, pp. 357--380, May 2004.

\bibitem{454_ref}
\url{http://ab.inf.uni-tuebingen.de/teaching/ss07/albi2/script/readsim_2July2007.pdf},
  [Online; accessed 16-November-2011].

\bibitem{Karaboga:2007}
D.~Karaboga and B.~Basturk, ``A powerful and efficient algorithm for numerical
  function optimization: artificial bee colony ({ABC}) algorithm,'' \emph{J. of
  Global Optimization}, vol.~39, pp. 459--471, November 2007.

\bibitem{metabook}
E.~G. Talbi, ``Metaheuristics from design to implementation,'' pp. 1--593,
  2009.

\bibitem{jung:575}
\BIBentryALTinterwordspacing
S.~H. Jung, ``Queen-bee evolution for genetic algorithms,'' \emph{Electronics
  Letters}, vol.~39, no.~6, pp. 575--576, 2003. [Online]. Available:
  \url{http://link.aip.org/link/?ELL/39/575/1}
\BIBentrySTDinterwordspacing

\bibitem{Qin:2004}
L.~Qin, Q.~Jiang, Z.~Zou, and Y.~Cao, ``A queen-bee evolution based on genetic
  algorithm for economic power dispatch,'' in \emph{39th International
  Universities Power Engineering Conference}, vol.~1, September 2004, pp.
  453--456.

\bibitem{Kelly:1996:MTA:547244}
J.~P. Kelly, \emph{Meta-Heuristics: Theory and Applications}, I.~H. Osman,
  Ed.\hskip 1em plus 0.5em minus 0.4em\relax Norwell, MA, USA: Kluwer Academic
  Publishers, 1996.

\bibitem{hillclimb}
S.~Luke, \emph{Essentials of Metaheuristics}.\hskip 1em plus 0.5em minus
  0.4em\relax Lulu, 2009, available for free at http://cs.gmu.edu/$\sim
  $sean/book/metaheuristics/.

\bibitem{Chapman:2007:UOP:1370966}
B.~Chapman, G.~Jost, and R.~v.~d. Pas, \emph{Using OpenMP: Portable Shared
  Memory Parallel Programming (Scientific and Engineering Computation)}.\hskip
  1em plus 0.5em minus 0.4em\relax The MIT Press, 2007.

\bibitem{McCool2012}
M.~D. McCool, A.~D. Robison, and J.~Reinders. (2012) Structured parallel
  programming patterns for efficient computation. Waltham, MA.

\bibitem{Reinders:2007:ITB:1461409}
J.~Reinders, \emph{Intel threading building blocks}, 1st~ed.\hskip 1em plus
  0.5em minus 0.4em\relax Sebastopol, CA, USA: O'Reilly \& Associates, Inc.,
  2007.

\bibitem{DNAseq_1}
\url{http://www.ncbi.nlm.nih.gov/nuccore/178817?report=fasta(M15421.1)},
  [Online; accessed 20-November-2011].

\bibitem{DNAseq_2}
\url{http://www.ncbi.nlm.nih.gov/nuccore/34645?report=fasta(X60189.1}, [Online;
  accessed 20-November-2011].

\bibitem{DNAseq_3}
\url{http://www.ncbi.nlm.nih.gov/nuccore/215104?report=fasta(J02459.1},
  [Online; accessed 20-November-2011].

\bibitem{DNAseq_4}
\url{http://0-www.ncbi.nlm.nih.gov.ilsprod.lib.neu.edu/Traces/wgs/?hide\_master\\*=\&val=ACIN02000001\#9(ACIN\_ALL)},
  [Online; accessed 20-November-2011].

\bibitem{fasim}
C.-G. Hur, S.~Kim, C.~H. Kim, S.~H. Yoon, Y.-H. In, C.~Kim, and H.~G. Cho,
  ``Fasim: Fragments assembly simulation using biased-sampling model and
  assembly simulation for microbial genome shotgun sequencing,'' \emph{Journal
  of Microbiology and Biotechnology}, vol. 16(5), pp. 683--688.

\bibitem{celsim}
G.~Myers, ``A dataset generator for whole genome shotgun sequencing,'' in
  \emph{Proceedings of the Seventh International Conference on Intelligent
  Systems for Molecular Biology}.\hskip 1em plus 0.5em minus 0.4em\relax AAAI
  Press, 1999, pp. 202--210.

\bibitem{negative_flow}
M.~M. et~al, ``{Genome sequencing in microfabricated high-density picolitre
  reactors},'' \emph{Nature}, vol. 437, no. 7057, pp. 376--80, 2005.

\bibitem{Wessing:2010:PTB:1885031.1885109}
\BIBentryALTinterwordspacing
S.~Wessing, N.~Beume, G.~Rudolph, and B.~Naujoks, ``Parameter tuning boosts
  performance of variation operators in multiobjective optimization,'' in
  \emph{Proceedings of the 11th international conference on Parallel problem
  solving from nature: Part I}, ser. PPSN'10.\hskip 1em plus 0.5em minus
  0.4em\relax Berlin, Heidelberg: Springer-Verlag, 2010, pp. 728--737.
  [Online]. Available: \url{http://dl.acm.org/citation.cfm?id=1885031.1885109}
\BIBentrySTDinterwordspacing

\end{thebibliography}
